{
  "AWSEBDockerrunVersion": "1",
  "Ports": [
    {
      "ContainerPort": "80"
    }
  ],
  "Volumes": [
    {
      "HostDirectory": "/efs",
      "ContainerDirectory": "/var/www/html"
    }
  ],
  "Logging": "/var/log/apache2"
}
